[gd_scene load_steps=2 format=2]

[ext_resource path="res://Props/MeshSpawn.gd" type="Script" id=1]



[node name="MeshSpawn" type="Node"]

script = ExtResource( 1 )
meshScene = null
enabledInEditor = true
enabledInGame = true
node_name = ""


