{
"name":"Whale-A",
"transform":
    [[1.000, 0.000, 0.000, 0.000],
    [0.000, 1.000, 0.000, 0.000],
    [0.000, 0.000, 1.000, 0.000],
    [0.000, 0.000, 0.000, 1.000]],
"cyclic":"True",
"curve":[
    [[118.670, -49.155, 0.000],     [-755.813, 1185.588, -117.436],     [-15.873, 6.575, 0.000]],
    [[15.873, -6.575, 0.000],     [-893.755, 1190.893, -117.436],     [-37.614, 15.580, 0.000]],
    [[37.614, 15.581, 0.000],     [-1015.781, 1185.588, -117.436],     [-70.332, -29.133, 0.000]],
    [[70.332, -29.132, 0.000],     [-1243.915, 1196.199, -77.246],     [-34.953, 14.478, 0.000]],
    [[19.890, -32.182, 0.000],     [-1376.552, 1302.308, -56.254],     [-44.185, 71.493, 0.000]],
    [[-32.162, -77.648, 0.000],     [-1440.218, 1599.414, -41.657],     [5.822, 14.055, 0.000]],
    [[-5.822, -14.055, 14.597],     [-1413.690, 1636.552, -56.254],     [28.939, 69.866, -72.559]],
    [[-96.825, -40.104, 0.000],     [-1068.835, 1843.465, -56.254],     [47.348, 19.611, 0.000]],
    [[-51.248, 0.000, 0.000],     [-777.035, 1859.381, -56.254],     [34.800, 0.000, 0.000]],
    [[-32.151, 13.317, 0.000],     [-580.733, 1859.381, -56.254],     [16.469, -6.821, 0.000]],
    [[-16.469, 6.822, 20.992],     [-437.485, 1854.076, -77.246],     [46.580, -19.294, -59.375]],
    [[-29.808, 71.965, 40.190],     [-257.100, 1705.523, -117.436],     [17.489, -42.224, -23.581]],
    [[19.680, 47.513, 0.000],     [-235.878, 1509.221, -117.436],     [-24.650, -59.512, 0.000]],
    [[24.650, 59.512, 0.000],     [-421.569, 1148.450, -65.878],     [-11.170, -26.968, 0.000]],
    [[11.170, 26.968, 0.000],     [-464.013, 946.842, 1.828],     [-46.899, -113.226, 0.000]],
    [[64.431, 104.251, 0.000],     [-591.344, 623.209, -97.663],     [-19.694, -31.865, 0.000]],
    [[31.865, 19.694, 0.000],     [-713.369, 479.961, -117.436],     [-75.243, -46.503, 0.000]],
    [[81.721, -33.849, 0.000],     [-1042.308, 458.740, 1.828],     [-87.576, 36.274, 0.000]],
    [[87.576, -36.275, 0.000],     [-1318.192, 527.710, -117.436],     [-9.324, 3.862, 0.000]],
    [[9.324, -3.862, 0.000],     [-1376.552, 564.849, -117.436],     [-110.726, 45.865, 0.000]],
    [[97.226, 70.078, 0.000],     [-1790.378, 538.321, 0.100],     [-35.953, -25.914, 0.000]],
    [[16.960, 40.945, 0.000],     [-1854.044, 421.601, -59.197],     [-3.450, -8.328, 0.000]],
    [[3.450, 8.328, 0.000],     [-1854.044, 347.325, -59.197],     [-25.986, -62.737, 0.000]],
    [[-35.700, 57.765, 0.000],     [-1822.211, 92.663, -59.197],     [34.849, -56.388, 0.000]],
    [[-61.242, 25.367, 0.000],     [-1647.131, -124.861, -81.203],     [70.563, -29.228, 0.000]],
    [[-70.563, -29.227, 0.000],     [-1339.414, -177.916, -117.436],     [54.213, 22.455, 0.000]],
    [[-54.212, -22.456, 0.000],     [-1047.614, 92.663, -117.436],     [26.518, 10.984, 0.000]],
    [[-26.518, -10.984, 0.000],     [-830.090, 108.579, -117.436],     [124.710, 51.655, 0.000]],
    [[109.505, -78.927, 0.000],     [-803.562, 357.936, -117.436],     [-43.086, 31.055, 0.000]],
    [[27.922, -45.179, 0.000],     [-1010.475, 543.627, -117.436],     [-6.934, 11.220, 0.000]],
    [[5.048, -12.186, 0.000],     [-1074.141, 596.681, -117.436],     [-9.214, 22.243, 0.000]],
    [[17.024, -17.024, 0.000],     [-1127.195, 681.569, -117.436],     [-25.599, 25.599, 0.000]],
    [[0.000, -36.203, 0.000],     [-1153.722, 830.122, -1.141],     [0.000, 21.587, 0.000]],
    [[-8.261, -19.944, 0.000],     [-1116.584, 883.176, -1.141],     [34.309, 82.829, 0.000]],
    [[-82.829, 34.309, 0.000],     [-856.617, 952.148, -117.436],     [63.430, -26.274, 0.000]],
    [[-26.273, 63.431, 0.000],     [-633.787, 766.456, -125.819],     [59.656, -144.026, 0.000]],
    [[-144.025, -59.658, 0.000],     [-326.071, 617.903, -125.819],     [12.761, 5.286, 0.000]],
    [[-11.205, -8.076, -8.382],     [-299.543, 649.736, -117.436],     [62.896, 45.333, 47.052]],
    [[0.000, -90.691, 0.000],     [-188.129, 957.453, -117.436],     [0.000, 17.507, 0.000]],
    [[6.700, -16.174, 0.000],     [-225.267, 994.591, -117.436],     [-49.154, 118.670, 0.000]]
]
}
