[gd_scene load_steps=4 format=2]

[ext_resource path="res://Plugin/Plugin.gd" type="Script" id=1]
[ext_resource path="res://Plugin/MapDescriptor.gd" type="Script" id=2]
[ext_resource path="res://Maps/Hawaii/T-Hawaii-Thumb.png" type="Texture" id=3]


[node name="Plugin" type="Node"]
script = ExtResource( 1 )

[node name="Small" type="Node" parent="."]
script = ExtResource( 2 )
display_name = "China"
map_size = 8000
recommended_player_count = "12"
description = "China's landscape is vast and diverse, ranging from the Gobi and Taklamakan Deserts in the arid north to subtropical forests in the wetter south. "
thumbnail = ExtResource( 3 )
scene_path = "res://Maps/China/China.tscn"
