[gd_resource type="ShaderMaterial" load_steps=5 format=2]

[ext_resource path="res://Materials/PS-Flora-Grass-A.shader" type="Shader" id=1]
[ext_resource path="res://Maps/Texas/T-Texas-Color.png" type="Texture" id=2]
[ext_resource path="res://Maps/Texas/T-Texas-Height.png" type="Texture" id=3]
[ext_resource path="res://Textures/FX-Noise-A.png" type="Texture" id=4]






[resource]
shader = ExtResource( 1 )
shader_param/rows = 50.0
shader_param/spacing = 10.0
shader_param/amplitude = 300.0
shader_param/heightmap_size = Vector2( 2048, 2048 )
shader_param/translation = Vector3( 0, -35.422, 0 )
shader_param/heightmap = ExtResource( 3 )
shader_param/colormap = ExtResource( 2 )
shader_param/noisemap = ExtResource( 4 )
