{
"name":"Whale-B",
"transform":
    [[1.000, 0.000, 0.000, 0.000],
    [0.000, 1.000, 0.000, 0.000],
    [0.000, 0.000, 1.000, 0.000],
    [0.000, 0.000, 0.000, 1.000]],
"cyclic":"True",
"curve":[
    [[98.058, -117.123, 0.000],     [-2212.673, 4418.680, -56.506],     [-596.590, 712.580, 0.000]],
    [[-250.029, 825.780, 0.000],     [-4195.042, 3771.159, -56.506],     [72.964, -240.982, 0.000]],
    [[-232.620, 96.355, 0.000],     [-3222.378, 3657.687, -56.506],     [319.241, -132.235, 0.000]],
    [[319.241, -132.233, 0.000],     [-3608.748, 3167.174, -56.506],     [-511.775, 211.982, 0.000]],
    [[-211.975, 511.778, 0.000],     [-4438.017, 2429.125, -56.506],     [214.212, -517.181, 0.000]],
    [[-395.831, -395.831, 0.000],     [-3417.532, 1679.327, -56.506],     [106.322, 106.322, 0.000]],
    [[-79.050, -127.905, 0.000],     [-3257.207, 2638.100, -56.506],     [227.720, 368.456, 0.000]],
    [[165.758, -400.176, 0.000],     [-2151.583, 2973.125, -56.506],     [-195.976, 473.128, 0.000]],
    [[473.124, -195.986, 0.000],     [-3104.276, 4178.399, -56.506],     [-126.668, 52.471, 0.000]],
    [[-126.671, -52.464, 0.000],     [-3105.243, 4589.716, -56.506],     [598.584, 247.920, 0.000]],
    [[-551.137, 340.611, 0.000],     [-1188.249, 4268.720, -56.506],     [235.206, -145.361, 0.000]],
    [[-105.811, 255.452, 0.000],     [135.679, 4005.427, -56.506],     [138.816, -335.134, 0.000]],
    [[335.133, 138.818, 0.000],     [-424.216, 3272.768, -56.506],     [-590.704, -244.679, 0.000]],
    [[244.686, -590.701, 0.000],     [-1944.198, 3569.854, -56.506],     [-58.458, 141.124, 0.000]]
]
}
