{
"name":"Bird-A",
"transform":
    [[1.000, 0.000, 0.000, 0.000],
    [0.000, 1.000, 0.000, 0.000],
    [0.000, 0.000, 1.000, 0.000],
    [0.000, 0.000, 0.000, 1.000]],
"cyclic":"True",
"curve":[
    [[-9.191, -22.188, 8.429],     [268.345, -857.795, 181.251],     [10.066, 24.302, -9.232]],
    [[-10.072, -24.315, 4.615],     [302.649, -674.843, 125.553],     [5.370, 12.965, -2.461]],
    [[-5.367, -12.957, 2.324],     [336.952, -589.084, 109.970],     [40.101, 96.810, -17.365]],
    [[-97.062, -40.207, 3.728],     [631.390, -263.201, 92.138],     [43.041, 17.829, -1.653]],
    [[-43.036, -17.826, -2.953],     [917.253, -131.704, 94.598],     [31.938, 13.229, 2.191]],
    [[-13.229, -31.938, -0.053],     [1005.871, -20.218, 97.746],     [2.684, 6.479, 0.011]],
    [[-2.683, -6.478, -0.107],     [1008.729, 34.096, 96.059],     [36.988, 89.297, 1.469]],
    [[57.129, -79.262, -6.538],     [960.132, 319.958, 123.157],     [-81.403, 112.939, 9.316]],
    [[128.207, -53.105, 3.168],     [642.825, 591.528, 165.877],     [-19.660, 8.143, -0.486]],
    [[19.465, -8.063, 0.708],     [511.328, 637.266, 150.495],     [-50.066, 20.738, -1.822]],
    [[49.932, -20.683, -10.759],     [119.697, 691.580, 147.809],     [-61.419, 25.441, 13.234]],
    [[66.425, 0.000, -6.053],     [-257.642, 711.590, 197.285],     [-107.940, 0.000, 9.836]],
    [[100.001, 41.422, 15.018],     [-869.387, 703.014, 242.686],     [-87.580, -36.278, -13.152]],
    [[-36.301, 87.639, 3.621],     [-986.591, 520.062, 222.687],     [12.122, -29.264, -1.209]],
    [[0.000, 31.683, -0.649],     [-975.156, 425.727, 218.860],     [0.000, -253.230, 5.186]],
    [[-96.910, 233.959, -5.307],     [-917.984, -331.808, 265.500],     [13.581, -32.788, 0.744]],
    [[-13.580, 32.786, 1.034],     [-866.529, -574.791, 266.960],     [19.411, -46.863, -1.478]],
    [[-19.410, 46.860, -0.487],     [-755.042, -894.957, 255.209],     [50.838, -122.731, 1.276]],
    [[-50.835, -122.724, 8.776],     [-540.645, -777.754, 237.629],     [70.545, 170.308, -12.179]],
    [[0.000, -183.831, -13.887],     [-297.662, 125.572, 175.145],     [0.000, 16.394, 1.238]],
    [[15.049, -6.233, -4.181],     [-326.249, 165.592, 184.405],     [-29.162, 12.079, 8.102]],
    [[12.037, -29.060, -9.519],     [-412.007, 259.927, 223.065],     [-9.079, 21.919, 7.180]],
    [[9.074, -21.906, -6.423],     [-517.777, 397.141, 287.722],     [-10.002, 24.147, 7.081]],
    [[10.106, -24.398, 3.476],     [-643.556, 551.507, 316.626],     [-56.545, 136.510, -19.451]],
    [[-136.525, -56.550, -0.167],     [-720.739, 871.673, 309.158],     [112.601, 46.640, 0.138]],
    [[-123.306, 0.000, 4.258],     [-360.552, 934.563, 224.108],     [91.680, 0.000, -3.166]],
    [[-91.857, 0.000, 5.484],     [391.266, 937.421, 161.060],     [77.330, 0.000, -4.617]],
    [[-71.622, 29.666, 6.366],     [622.815, 923.128, 148.794],     [78.843, -32.657, -7.008]],
    [[32.899, 79.423, 1.404],     [765.746, 814.500, 135.176],     [-21.879, -52.820, -0.934]],
    [[52.583, 21.783, 3.334],     [662.835, 677.286, 134.075],     [-29.100, -12.055, -1.845]],
    [[29.203, 12.096, 0.252],     [479.883, 540.072, 109.479],     [-108.476, -44.932, -0.937]],
    [[27.019, 114.453, -6.212],     [191.162, 222.765, 129.839],     [-12.340, -52.272, 2.837]],
    [[20.544, 49.597, 2.269],     [122.555, 76.975, 129.101],     [-15.618, -37.705, -1.725]],
    [[15.603, 37.668, -3.599],     [-46.103, -163.149, 142.457],     [-40.224, -97.109, 9.277]],
    [[40.268, 97.219, -12.062],     [-166.166, -454.729, 179.872],     [-47.037, -113.561, 14.089]],
    [[-46.972, 113.401, -13.627],     [-120.428, -820.633, 214.959],     [33.201, -80.155, 9.632]],
    [[-84.452, 19.937, -0.615],     [82.535, -983.575, 230.479],     [34.887, -8.236, 0.254]],
    [[-25.153, -25.152, 7.936],     [214.031, -989.292, 226.276],     [25.347, 25.346, -7.997]]
]
}
