[gd_scene load_steps=9 format=2]

[ext_resource path="res://Player/StrategyCamera.gd" type="Script" id=1]
[ext_resource path="res://Game/InputActions.gd" type="Script" id=2]

[sub_resource type="Curve" id=1]
_data = [ Vector2( 0, 0 ), 0.0, 0.599428, 0, 0, Vector2( 1, 1 ), 2.8971, 0.0, 0, 0 ]

[sub_resource type="CurveTexture" id=2]
curve = SubResource( 1 )

[sub_resource type="Curve" id=3]
_data = [ Vector2( 0, 0 ), 0.0, 0.349776, 0, 0, Vector2( 1, 1 ), 3.91102, 0.0, 0, 0 ]

[sub_resource type="CurveTexture" id=4]
curve = SubResource( 3 )

[sub_resource type="Curve" id=5]
_data = [ Vector2( 0, 1 ), 0.0, -0.103714, 0, 0, Vector2( 1, 0 ), -2.17862, 0.0, 0, 0 ]

[sub_resource type="CurveTexture" id=6]
width = 64
curve = SubResource( 5 )

[node name="StrategyCamera" type="Camera"]
pause_mode = 2
current = true
fov = 40.0
near = 5.0
far = 15000.0
script = ExtResource( 1 )
minimum_pitch_angle = -30.0
pitch_by_height = SubResource( 2 )
zoom_steps = 10
step_by_height = SubResource( 4 )
end_keyboard_pan = SubResource( 6 )

[node name="InputActions" type="Node" parent="."]
script = ExtResource( 2 )
