[gd_scene load_steps=5 format=2]

[ext_resource path="res://UI/DebugTextWidget.gd" type="Script" id=1]
[ext_resource path="res://Fonts/Misc/mini_pixel7.ttf" type="DynamicFontData" id=2]
[ext_resource path="res://UI/WorldToScreenControl.gd" type="Script" id=3]

[sub_resource type="DynamicFont" id=1]
size = 14
font_data = ExtResource( 2 )

[node name="DebugTextWidget" type="Spatial"]
pause_mode = 2
script = ExtResource( 1 )

[node name="RichTextLabel" type="RichTextLabel" parent="."]
visible = false
anchor_right = 1.0
anchor_bottom = 1.0
margin_left = 0.10629
margin_top = -46.245
margin_right = 127.106
margin_bottom = -65.245
mouse_filter = 2
size_flags_horizontal = 3
size_flags_vertical = 3
custom_fonts/normal_font = SubResource( 1 )
bbcode_enabled = true
bbcode_text = "Debug Text HEre"
text = "Debug Text HEre"
script = ExtResource( 3 )
