[gd_scene load_steps=5 format=2]

[ext_resource path="res://Resource/ResourceNode.tscn" type="PackedScene" id=1]
[ext_resource path="res://Mesh/Structure-Silo-B.glb" type="PackedScene" id=2]
[ext_resource path="res://Props/RayCastToGround.tscn" type="PackedScene" id=3]

[sub_resource type="BoxShape" id=1]
extents = Vector3( 16.8401, 3.9126, 18.7785 )

[node name="MunitionsFactory" instance=ExtResource( 1 )]
type = 1

[node name="StaticBody" type="StaticBody" parent="." index="3"]

[node name="CollisionShape" type="CollisionShape" parent="StaticBody" index="0"]
transform = Transform( 1, 0, 0, 0, 1, 0, 0, 0, 1, 2.62752, 2.27877, 0 )
shape = SubResource( 1 )

[node name="Spatial" type="Spatial" parent="." index="4"]

[node name="Structure-Silo-B" parent="Spatial" index="0" instance=ExtResource( 2 )]
transform = Transform( 1, 0, 0, 0, 1, 0, 0, 0, 1, -8.99388, -2.38419e-06, -11.9426 )

[node name="Structure-Silo-B2" parent="Spatial" index="1" instance=ExtResource( 2 )]
transform = Transform( 1, 0, 0, 0, 1, 0, 0, 0, 1, 11.6734, -2.38419e-06, -8.04027 )

[node name="RayCastToGround" parent="." index="5" instance=ExtResource( 3 )]
