[gd_resource type="Animation" format=2]

[resource]
resource_name = "Moving"
length = 3.0
loop = true
tracks/0/type = "bezier"
tracks/0/path = NodePath(".:scale:x")
tracks/0/interp = 1
tracks/0/loop_wrap = true
tracks/0/imported = false
tracks/0/enabled = true
tracks/0/keys = {
"points": PoolRealArray( 1.23175, -0.0805228, -0.00393105, 0.0805228, 0.00393105, 0.999563, -0.10152, 0.00436789, 0.10152, -0.00436789, 1.24685, -0.0969599, 0.00436759, 0.0969599, -0.00436759, 0.999563, -0.122102, -0.0359553, 0.122102, 0.0359553, 1.23175, -0.25, 0, 0.25, 0 ),
"times": PoolRealArray( 0.00217629, 0.7, 1.49511, 2.2, 3.00218 )
}
tracks/1/type = "bezier"
tracks/1/path = NodePath(".:scale:y")
tracks/1/interp = 1
tracks/1/loop_wrap = true
tracks/1/imported = false
tracks/1/enabled = true
tracks/1/keys = {
"points": PoolRealArray( 1, -0.25, 0, 0.25, 0, 1.23083, -0.25, 0, 0.25, 0, 0.964621, -0.25, 0, 0.25, 0, 1.23083, -0.25, 0, 0.25, 0, 1, -0.25, 0, 0.25, 0 ),
"times": PoolRealArray( 0, 0.7, 1.49076, 2.2, 3 )
}
tracks/2/type = "bezier"
tracks/2/path = NodePath(".:scale:z")
tracks/2/interp = 1
tracks/2/loop_wrap = true
tracks/2/imported = false
tracks/2/enabled = true
tracks/2/keys = {
"points": PoolRealArray( 1, -0.25, 0, 0.25, 0, 1.0083, -0.25, 0, 0.25, 0, 1, -0.25, 0, 0.25, 0 ),
"times": PoolRealArray( 0, 1.49729, 3 )
}
tracks/3/type = "bezier"
tracks/3/path = NodePath(".:rotation_degrees:x")
tracks/3/interp = 1
tracks/3/loop_wrap = true
tracks/3/imported = false
tracks/3/enabled = true
tracks/3/keys = {
"points": PoolRealArray( 0, -0.25, 0, 0.25, 0, 0, -0.25, 0, 0.25, 0 ),
"times": PoolRealArray( 0, 3 )
}
tracks/4/type = "bezier"
tracks/4/path = NodePath(".:rotation_degrees:y")
tracks/4/interp = 1
tracks/4/loop_wrap = true
tracks/4/imported = false
tracks/4/enabled = true
tracks/4/keys = {
"points": PoolRealArray( 0, -0.25, 0, 0.25, 0, 0, -0.25, 0, 0.25, 0 ),
"times": PoolRealArray( 0, 3 )
}
tracks/5/type = "bezier"
tracks/5/path = NodePath(".:rotation_degrees:z")
tracks/5/interp = 1
tracks/5/loop_wrap = true
tracks/5/imported = false
tracks/5/enabled = true
tracks/5/keys = {
"points": PoolRealArray( 0, -0.177838, -4.81457, 0.177838, 4.81457, 9.91325, -0.25, 0, 0.25, 0, -0.00307488, -0.19772, 4.88255, 0.19772, -4.88255, -10.0091, -0.25, 0, 0.25, 0, 0, -0.16465, -4.98616, 0.16465, 4.98616 ),
"times": PoolRealArray( 0, 0.696254, 1.49795, 2.22801, 3 )
}
