<?xml version="1.0" encoding="UTF-8" standalone="no"?>
<svg
   xmlns:dc="http://purl.org/dc/elements/1.1/"
   xmlns:cc="http://creativecommons.org/ns#"
   xmlns:rdf="http://www.w3.org/1999/02/22-rdf-syntax-ns#"
   xmlns:svg="http://www.w3.org/2000/svg"
   xmlns="http://www.w3.org/2000/svg"
   xmlns:sodipodi="http://sodipodi.sourceforge.net/DTD/sodipodi-0.dtd"
   xmlns:inkscape="http://www.inkscape.org/namespaces/inkscape"
   width="20"
   height="20"
   version="1.1"
   viewBox="0 0 20 20"
   id="svg6"
   sodipodi:docname="UI-Company-A.svg"
   inkscape:version="0.92.2 2405546, 2018-03-11"
   inkscape:export-filename="/home/fabian/Projects/TrainsAndThings/Source/Textures/UI-Shares-A.svg.png"
   inkscape:export-xdpi="96"
   inkscape:export-ydpi="96">
  <metadata
     id="metadata12">
    <rdf:RDF>
      <cc:Work
         rdf:about="">
        <dc:format>image/svg+xml</dc:format>
        <dc:type
           rdf:resource="http://purl.org/dc/dcmitype/StillImage" />
        <dc:title />
      </cc:Work>
    </rdf:RDF>
  </metadata>
  <defs
     id="defs10" />
  <sodipodi:namedview
     pagecolor="#808080"
     bordercolor="#666666"
     borderopacity="1"
     objecttolerance="10"
     gridtolerance="10"
     guidetolerance="10"
     inkscape:pageopacity="1"
     inkscape:pageshadow="2"
     inkscape:window-width="2504"
     inkscape:window-height="1051"
     id="namedview8"
     showgrid="true"
     inkscape:zoom="15.999999"
     inkscape:cx="-6.5983302"
     inkscape:cy="8.783163"
     inkscape:window-x="1336"
     inkscape:window-y="0"
     inkscape:window-maximized="1"
     inkscape:current-layer="layer3"
     inkscape:snap-bbox="true">
    <inkscape:grid
       type="xygrid"
       id="grid820"
       empspacing="1"
       dotted="false" />
  </sodipodi:namedview>
  <g
     inkscape:groupmode="layer"
     id="layer3"
     inkscape:label="Layer 3"
     transform="translate(0,4)"
     style="display:inline">
    <rect
       style="fill:#ffffff;fill-opacity:1;stroke-width:1.06066012"
       id="rect832"
       width="18"
       height="1"
       x="1"
       y="14" />
    <path
       style="fill:#ffffff;fill-opacity:1;stroke-width:1.97484183"
       d="M 4 5 L 2 7 L 2 18 L 8 18 L 8 5 L 4 5 z M 4 9 L 7 9 L 7 10 L 4 10 L 4 9 z M 4 11 L 7 11 L 7 12 L 4 12 L 4 11 z M 4 13 L 7 13 L 7 14 L 4 14 L 4 13 z M 4 15 L 7 15 L 7 16 L 4 16 L 4 15 z "
       transform="translate(0,-4)"
       id="rect834" />
    <path
       style="fill:#ffffff;fill-opacity:1;stroke-width:2.52487636"
       d="M 9 1 L 9 18 L 12 18 L 12 16 L 12 15 L 13 15 L 15 15 L 16 15 L 16 16 L 16 18 L 18 18 L 18 3 L 14 3 L 14 1 L 9 1 z M 10 6 L 17 6 L 17 7 L 10 7 L 10 6 z M 10 8 L 17 8 L 17 9 L 10 9 L 10 8 z M 10 10 L 17 10 L 17 11 L 10 11 L 10 10 z M 10 12 L 13 12 L 13 13 L 10 13 L 10 12 z M 13 16 L 13 18 L 15 18 L 15 16 L 13 16 z "
       transform="translate(0,-4)"
       id="rect836" />
  </g>
</svg>
