<?xml version="1.0" encoding="UTF-8" standalone="no"?>
<svg
   xmlns:dc="http://purl.org/dc/elements/1.1/"
   xmlns:cc="http://creativecommons.org/ns#"
   xmlns:rdf="http://www.w3.org/1999/02/22-rdf-syntax-ns#"
   xmlns:svg="http://www.w3.org/2000/svg"
   xmlns="http://www.w3.org/2000/svg"
   xmlns:sodipodi="http://sodipodi.sourceforge.net/DTD/sodipodi-0.dtd"
   xmlns:inkscape="http://www.inkscape.org/namespaces/inkscape"
   width="16"
   height="16"
   version="1.1"
   viewBox="0 0 16 16"
   id="svg6"
   sodipodi:docname="UI-Location-A.svg"
   inkscape:version="0.92.2 5c3e80d, 2017-08-06">
  <metadata
     id="metadata12">
    <rdf:RDF>
      <cc:Work
         rdf:about="">
        <dc:format>image/svg+xml</dc:format>
        <dc:type
           rdf:resource="http://purl.org/dc/dcmitype/StillImage" />
      </cc:Work>
    </rdf:RDF>
  </metadata>
  <defs
     id="defs10" />
  <sodipodi:namedview
     pagecolor="#ffffff"
     bordercolor="#666666"
     borderopacity="1"
     objecttolerance="10"
     gridtolerance="10"
     guidetolerance="10"
     inkscape:pageopacity="0"
     inkscape:pageshadow="2"
     inkscape:window-width="2504"
     inkscape:window-height="1051"
     id="namedview8"
     showgrid="false"
     inkscape:zoom="22.627416"
     inkscape:cx="7.0738173"
     inkscape:cy="-1.1239723"
     inkscape:window-x="1336"
     inkscape:window-y="0"
     inkscape:window-maximized="1"
     inkscape:current-layer="svg6" />
  <g
     id="g3707"
     transform="translate(-0.62332368,-1037.5525)"
     style="fill:#e0e0e0;fill-opacity:0.99607999">
    <g
       transform="matrix(0.01931862,0,0,0.01931862,1.1552242,1037.9352)"
       id="g8">
      <g
         id="g6">
        <g
           id="g4-3">
          <path
             inkscape:connector-curvature="0"
             d="m 396.007,792.002 c -12.107,0 -23.088,-5.693 -30.143,-15.589 L 169.824,500.245 c -18.246,-25.392 -37.027,-51.529 -50.443,-83.229 -7.749,-18.271 -13.69,-37.499 -17.656,-57.158 -4.005,-19.868 -6.034,-39.933 -6.034,-59.645 0,-80.193 31.242,-155.609 87.981,-212.361 27.983,-27.996 60.809,-49.894 97.562,-65.142 73.125,-30.274 156.421,-30.287 229.507,0 36.779,15.222 69.605,37.132 97.575,65.142 56.739,56.739 87.994,132.155 87.994,212.361 0,19.685 -2.016,39.75 -6.021,59.645 -4.031,19.738 -9.974,38.965 -17.67,57.171 -13.389,31.648 -32.146,57.76 -50.299,83.021 -2.068,2.854 -3.913,5.406 -8.73,12.199 l -187.467,264.14 c -7.066,9.92 -18.035,15.613 -30.116,15.613 z m 0,-765.941 c -36.15,0 -71.398,7.002 -104.76,20.837 -33.559,13.9 -63.532,33.926 -89.081,59.461 -51.778,51.804 -80.298,120.65 -80.298,193.854 0,17.984 1.859,36.308 5.523,54.475 3.612,17.931 9.031,35.47 16.099,52.119 12.277,29.018 29.396,52.838 47.511,78.06 l 8.73,12.238 187.468,264.125 c 4.293,6.061 13.233,6.112 17.591,-0.013 l 187.454,-264.14 c 4.895,-6.897 6.793,-9.516 8.69,-12.146 18.232,-25.365 35.326,-49.173 47.577,-78.125 7.015,-16.597 12.434,-34.162 16.111,-52.171 3.639,-18.154 5.497,-36.478 5.497,-54.436 0,-73.217 -28.532,-142.05 -80.324,-193.841 C 564.26,80.809 534.3,60.797 500.701,46.897 467.354,33.063 432.132,26.061 396.007,26.061 Z m 0,454.774 c -99.617,0 -180.661,-81.031 -180.661,-180.635 0,-99.604 81.044,-180.622 180.661,-180.622 99.578,0 180.609,81.031 180.609,180.635 0,99.604 -81.017,180.622 -180.609,180.622 z m 0,-335.08 c -85.18,0 -154.484,69.291 -154.484,154.458 0,85.167 69.304,154.458 154.484,154.458 85.154,0 154.432,-69.291 154.432,-154.458 0,-85.167 -69.278,-154.458 -154.432,-154.458 z"
             id="path2-6" />
        </g>
      </g>
    </g>
  </g>
  <path
     style="fill:#e0e0e0;fill-opacity:1;stroke-width:0.04419418"
     d="M 8.086022,15.140855 C 8.0266339,15.102281 4.0965556,9.5744985 3.7433432,9.0327358 3.4305419,8.5529567 3.190182,7.9934183 3.0425968,7.4014545 2.9413755,6.9954559 2.9253635,6.8374891 2.9233846,6.2253569 2.9208936,5.4548513 2.9665368,5.1376236 3.1704804,4.5080002 3.8573428,2.3874889 5.9227617,0.89995871 8.1802055,0.89995871 c 2.2709395,0 4.2924695,1.45716829 5.0155115,3.61530269 0.411052,1.2269078 0.335638,2.6774119 -0.199751,3.8419854 -0.08089,0.1759604 -0.259774,0.492815 -0.39751,0.7041211 -0.381252,0.5848922 -4.221296,5.9950261 -4.2999383,6.0580671 -0.077959,0.06249 -0.1396809,0.06872 -0.2124957,0.02142 z M 9.0675844,9.5611231 c 0.3725193,-0.095274 0.8571968,-0.3253942 1.1759946,-0.5583496 0.376099,-0.2748273 0.807303,-0.7815519 1.026923,-1.2067759 0.294695,-0.5705848 0.389702,-0.9642701 0.389702,-1.6148349 0,-0.6519498 -0.09456,-1.0422698 -0.393711,-1.6251814 C 11.095012,4.2218444 10.981039,4.0720357 10.635186,3.7261826 10.289332,3.3803295 10.139524,3.2663557 9.8053871,3.0948749 9.2380868,2.8037338 8.832797,2.7040661 8.2023026,2.7006491 7.6209189,2.6974982 7.2531134,2.773586 6.760605,2.9988926 5.760787,3.4562768 5.0463302,4.3153994 4.7757339,5.3856676 4.6716892,5.7971874 4.6707884,6.558969 4.7738525,6.9766579 4.8158362,7.1468055 4.9518645,7.4948346 5.0761376,7.750056 5.2759907,8.1604966 5.3508997,8.2628427 5.7246812,8.636143 6.0680559,8.9790752 6.2218339,9.0963666 6.5450211,9.2618419 7.3809052,9.6898236 8.1893466,9.7857387 9.0675844,9.5611231 Z"
     id="path28"
     inkscape:connector-curvature="0" />
  <path
     style="fill:#e0e0e0;fill-opacity:1;stroke-width:0.04419418"
     d="M 7.8498063,15.585921 C 7.7288522,15.523101 7.2890392,14.932848 5.7816091,12.810289 3.4652569,9.5487156 3.227344,9.2008274 2.9903568,8.7287793 1.9082617,6.5733847 2.3403108,3.8647379 4.0403635,2.1459689 4.5499869,1.630735 4.9357152,1.3485303 5.5628287,1.0321102 6.4447914,0.58710192 7.1927742,0.41136176 8.2051478,0.41129149 9.7666399,0.41118322 11.167799,0.9904846 12.269826,2.0918107 c 1.865562,1.864375 2.238615,4.7516848 0.905316,7.0068641 -0.317609,0.5372129 -4.4835935,6.3812872 -4.6062138,6.4616302 -0.1656579,0.108543 -0.5341781,0.12167 -0.7191219,0.02562 z m 0.134223,-0.599069 C 7.8461577,14.795566 7.6283356,14.536064 7.6762359,14.620163 c 0.064298,0.11289 0.3985718,0.554514 0.4197214,0.554514 0.012897,0 -0.03747,-0.08452 -0.111928,-0.187825 z m 0.5214533,-0.09744 c 0.2081157,-0.289795 0.140168,-0.247484 -0.085509,0.05325 -0.1048829,0.139764 -0.1610069,0.230155 -0.1247204,0.20087 0.036287,-0.02929 0.1308904,-0.143638 0.2102295,-0.254117 z M 7.53939,14.379182 C 7.4874662,14.306262 7.4350391,14.2466 7.4228857,14.2466 c -0.012153,0 0.020386,0.05966 0.07231,0.132582 0.051924,0.07292 0.1043508,0.132583 0.1165042,0.132583 0.012153,0 -0.020386,-0.05966 -0.07231,-0.132583 z M 7.3184191,14.069823 c -0.051924,-0.07292 -0.1043509,-0.132582 -0.1165043,-0.132582 -0.012153,0 0.020386,0.05966 0.07231,0.132582 0.051924,0.07292 0.1043509,0.132583 0.1165043,0.132583 0.012153,0 -0.020386,-0.05966 -0.07231,-0.132583 z m 1.7292103,0.05524 c 0.054972,-0.0701 0.053409,-0.07166 -0.016686,-0.01669 -0.042537,0.03336 -0.07734,0.06816 -0.07734,0.07734 0,0.03637 0.036292,0.01296 0.094026,-0.06065 z M 7.0974482,13.743778 c 0,-0.0092 -0.034803,-0.04398 -0.07734,-0.07734 -0.070095,-0.05497 -0.071658,-0.05341 -0.016686,0.01669 0.057734,0.07362 0.094026,0.09703 0.094026,0.06065 z M 4.7109627,10.385021 c 0,-0.0092 -0.034803,-0.04398 -0.07734,-0.07734 -0.070094,-0.05497 -0.071658,-0.05341 -0.016686,0.01669 0.057734,0.07362 0.094025,0.09703 0.094025,0.06065 z M 4.4016035,9.9430788 c 0,-0.00918 -0.034803,-0.04398 -0.07734,-0.07734 -0.070095,-0.054972 -0.071658,-0.053409 -0.016686,0.016686 0.057734,0.073616 0.094026,0.097027 0.094026,0.060654 z M 4.1806326,9.6504055 C 4.1287087,9.5774851 4.0762819,9.517823 4.0641285,9.517823 c -0.012153,0 0.020386,0.059662 0.07231,0.1325825 0.051924,0.07292 0.1043508,0.1325825 0.1165042,0.1325825 0.012153,0 -0.020386,-0.059662 -0.07231,-0.1325825 z m 8.0433404,0 c 0.05192,-0.07292 0.08446,-0.1325825 0.07231,-0.1325825 -0.01215,0 -0.06458,0.059662 -0.116505,0.1325825 -0.05192,0.07292 -0.08446,0.1325825 -0.07231,0.1325825 0.01215,0 0.06458,-0.059662 0.116505,-0.1325825 z m -3.9664277,0.013005 c -0.05469,-0.010534 -0.1441835,-0.010534 -0.1988738,0 -0.05469,0.010534 -0.00994,0.019153 0.099437,0.019153 0.1093806,0 0.1541272,-0.00862 0.099437,-0.019153 z M 12.592192,9.1207538 c 0.13697,-0.2318701 0.04893,-0.1439846 -0.121073,0.1208556 -0.08971,0.1397641 -0.116885,0.1997316 -0.06038,0.1332609 0.0565,-0.066471 0.138158,-0.1808231 0.181453,-0.2541165 z M 8.8402738,9.0978024 C 9.6545723,8.9253015 10.472253,8.2849562 10.843428,7.5290851 11.1042,6.9980417 11.177372,6.6466445 11.151717,6.0485802 11.116799,5.2346203 10.865471,4.6679818 10.279429,4.0819394 9.9056482,3.7081587 9.5958639,3.5098434 9.1230847,3.3416803 8.8359596,3.2395525 8.7307593,3.2262065 8.2023026,3.2248673 7.6669083,3.2235105 7.5684255,3.2358096 7.2426477,3.3447153 6.3666135,3.6375687 5.6354057,4.3705185 5.3422707,5.2496198 5.2374174,5.564071 5.2232234,5.675139 5.2232234,6.1811627 c 0,0.5068577 0.014107,0.6168446 0.1197749,0.9338459 C 5.67832,8.1209657 6.5736628,8.9142384 7.6052353,9.119348 7.8983828,9.177635 8.5141296,9.166893 8.8402738,9.0978024 Z M 3.6503025,8.8549104 c -0.026017,-0.048614 -0.057248,-0.088388 -0.069401,-0.088388 -0.012153,0 -8.101e-4,0.039775 0.025207,0.088388 0.026017,0.048614 0.057248,0.088388 0.069401,0.088388 0.012153,0 8.101e-4,-0.039775 -0.025207,-0.088388 z m 9.1040005,0 c 0.02602,-0.048614 0.03736,-0.088388 0.02521,-0.088388 -0.01215,0 -0.04338,0.039775 -0.0694,0.088388 -0.02602,0.048614 -0.03736,0.088388 -0.02521,0.088388 0.01215,0 0.04338,-0.039775 0.0694,-0.088388 z M 3.4646161,8.5244237 C 3.411734,8.4155765 3.3608866,8.3340997 3.351622,8.3433641 c -0.019993,0.019993 0.1585804,0.3789637 0.1885189,0.3789637 0.011344,0 -0.022643,-0.089057 -0.075525,-0.1979041 z m 9.4686479,0.016845 c 0.0508,-0.099582 0.08479,-0.1886393 0.07553,-0.1979042 -0.0093,-0.00926 -0.06011,0.072212 -0.112994,0.1810596 -0.120442,0.2479063 -0.08788,0.2625456 0.03747,0.016845 z M 3.302144,8.1621666 c -0.052098,-0.089591 -0.064679,-0.060915 -0.022032,0.05022 0.015156,0.039496 0.036867,0.062502 0.048245,0.051123 0.011379,-0.011379 -4.155e-4,-0.056983 -0.026213,-0.101343 z M 3.1672557,7.7907071 C 3.120495,7.6589687 3.0807833,7.5724988 3.0790073,7.5985521 c -0.00455,0.066742 0.1356649,0.469283 0.156281,0.4486668 0.00934,-0.00934 -0.021272,-0.124773 -0.068033,-0.2565118 z M 13.270628,7.609187 c -0.01411,-0.035255 -0.02458,-0.024783 -0.0267,0.026701 -0.0019,0.046588 0.0085,0.07269 0.02321,0.058005 0.01469,-0.014686 0.01626,-0.052803 0.0035,-0.084706 z M 3.0617737,7.4324103 c -0.014108,-0.035255 -0.02458,-0.024783 -0.026701,0.026701 -0.00192,0.046588 0.00853,0.07269 0.023212,0.058005 0.014685,-0.014686 0.016255,-0.052803 0.00349,-0.084706 z m 10.2530483,0 c -0.01411,-0.035255 -0.02458,-0.024783 -0.0267,0.026701 -0.0019,0.046588 0.0085,0.07269 0.02321,0.058005 0.01469,-0.014686 0.01625,-0.052803 0.0035,-0.084706 z M 3.0175795,7.2556336 c -0.014108,-0.035255 -0.02458,-0.024783 -0.026701,0.026701 -0.00192,0.046588 0.00853,0.07269 0.023212,0.058005 0.014685,-0.014686 0.016255,-0.052803 0.00349,-0.084706 z m 10.3414365,0 c -0.01411,-0.035255 -0.02458,-0.024783 -0.0267,0.026701 -0.0019,0.046588 0.0085,0.07269 0.02321,0.058005 0.01469,-0.014686 0.01626,-0.052803 0.0035,-0.084706 z m 0.04327,-0.2679272 c -0.01226,-0.030384 -0.02229,-0.00552 -0.02229,0.055243 0,0.060767 0.01003,0.085626 0.02229,0.055243 0.01226,-0.030384 0.01226,-0.080102 0,-0.110486 z m -10.4289047,0.00276 c -0.014108,-0.035255 -0.02458,-0.024783 -0.026701,0.026701 -0.00192,0.046588 0.00853,0.07269 0.023212,0.058005 0.014685,-0.014686 0.016255,-0.052803 0.00349,-0.084706 z M 2.9319113,5.840754 c -0.00821,-0.201685 -0.014969,-0.048502 -0.015024,0.3404065 -5.75e-5,0.3889088 0.00666,0.5539241 0.014923,0.3667003 0.00826,-0.1872233 0.00831,-0.5054214 1.01e-4,-0.7071068 z M 13.448405,6.5899588 c -0.01053,-0.05469 -0.01915,-0.00994 -0.01915,0.099437 0,0.1093806 0.0086,0.1541272 0.01915,0.099437 0.01053,-0.05469 0.01053,-0.1441835 0,-0.198874 z M 4.7411524,6.7253035 c -0.014108,-0.035255 -0.02458,-0.024783 -0.026701,0.026701 -0.00192,0.046588 0.00853,0.07269 0.023212,0.058005 0.014685,-0.014686 0.016255,-0.052803 0.00349,-0.084706 z M 13.492036,6.126761 c -0.01121,-0.043 -0.02111,-0.018519 -0.02201,0.054402 -9.01e-4,0.07292 0.0083,0.1081016 0.02037,0.078181 0.01211,-0.029921 0.01284,-0.089583 0.0016,-0.1325825 z m -0.04363,-0.5532682 c -0.01053,-0.05469 -0.01915,-0.00994 -0.01915,0.099437 0,0.1093806 0.0086,0.1541272 0.01915,0.099437 0.01053,-0.05469 0.01053,-0.1441835 0,-0.198874 z M 2.9724647,5.2641336 c -0.01226,-0.030384 -0.022291,-0.00552 -0.022291,0.055243 0,0.060767 0.010031,0.085626 0.022291,0.055243 0.01226,-0.030384 0.01226,-0.080102 0,-0.110486 z M 13.403647,5.2428775 c -0.0112,-0.043 -0.02111,-0.018519 -0.02201,0.054402 -9.02e-4,0.07292 0.0083,0.1081016 0.02037,0.078181 0.01211,-0.029921 0.01284,-0.089583 0.0016,-0.1325825 z M 3.0175795,5.0459248 c -0.014108,-0.035255 -0.02458,-0.024783 -0.026701,0.026701 -0.00192,0.046588 0.00853,0.07269 0.023212,0.058005 0.014685,-0.014686 0.016255,-0.052803 0.00349,-0.084706 z m 10.3414365,0 c -0.01411,-0.035255 -0.02458,-0.024783 -0.0267,0.026701 -0.0019,0.046588 0.0085,0.07269 0.02321,0.058005 0.01469,-0.014686 0.01626,-0.052803 0.0035,-0.084706 z m -0.04419,-0.2209709 c -0.01411,-0.035255 -0.02458,-0.024783 -0.0267,0.026701 -0.0019,0.046588 0.0085,0.07269 0.02321,0.058005 0.01469,-0.014686 0.01625,-0.052803 0.0035,-0.084706 z M 3.1059679,4.6923714 c -0.014108,-0.035255 -0.02458,-0.024783 -0.026701,0.026701 -0.00192,0.046588 0.00853,0.07269 0.023212,0.058005 0.014685,-0.014686 0.016255,-0.052803 0.00349,-0.084706 z M 3.2953956,4.1924248 c 0,-0.024307 -0.019278,-0.014363 -0.042841,0.022097 -0.023562,0.03646 -0.042841,0.086179 -0.042841,0.1104854 0,0.024307 0.019278,0.014363 0.042841,-0.022097 0.023562,-0.03646 0.042841,-0.086179 0.042841,-0.1104854 z m 9.8178554,0.03646 c -0.0521,-0.089591 -0.06468,-0.060915 -0.02203,0.05022 0.01516,0.039496 0.03687,0.062502 0.04824,0.051123 0.01138,-0.011379 -3.98e-4,-0.056983 -0.02621,-0.101343 z M 12.933337,3.8212464 C 12.858475,3.672946 12.787753,3.5516093 12.776176,3.5516093 c -0.01158,0 0.04238,0.1286291 0.119907,0.2858424 0.07753,0.1572134 0.148248,0.2785501 0.157161,0.2696371 0.0089,-0.00891 -0.04504,-0.1375421 -0.119907,-0.2858424 z M 3.5619141,3.6399976 c 0.026017,-0.048614 0.03736,-0.088388 0.025207,-0.088388 -0.012153,0 -0.043384,0.039775 -0.069401,0.088388 -0.026017,0.048614 -0.03736,0.088388 -0.025207,0.088388 0.012153,0 0.043384,-0.039775 0.069401,-0.088388 z M 12.710109,3.4190267 c -0.02602,-0.048614 -0.05725,-0.088388 -0.0694,-0.088388 -0.01215,0 -8.08e-4,0.039775 0.02521,0.088388 0.02602,0.048614 0.05725,0.088388 0.0694,0.088388 0.01215,0 8.08e-4,-0.039775 -0.02521,-0.088388 z M 12.533332,3.1371759 c 0,-0.00918 -0.0348,-0.04398 -0.07734,-0.07734 -0.0701,-0.054972 -0.07166,-0.053409 -0.01669,0.016686 0.05773,0.073616 0.09403,0.097027 0.09403,0.060654 z M 4.0536873,2.8997452 c 0.054972,-0.070094 0.053409,-0.071658 -0.016686,-0.016686 -0.073616,0.057734 -0.097027,0.094026 -0.060654,0.094026 0.00918,0 0.04398,-0.034803 0.07734,-0.07734 z m 8.2215567,-0.088388 c -0.07311,-0.09115 -0.267418,-0.2949961 -0.431788,-0.4529903 -0.232294,-0.2232843 -0.205976,-0.1868632 0.118171,0.1635314 0.229364,0.2479365 0.423668,0.4517821 0.431787,0.4529903 0.0081,0.00121 -0.04506,-0.072381 -0.11817,-0.1635314 z M 4.4678948,2.4467549 c 0.1688438,-0.1701476 0.297045,-0.3093593 0.2848916,-0.3093593 -0.012153,0 -0.160242,0.1392117 -0.3290858,0.3093593 -0.1688438,0.1701475 -0.297045,0.3093592 -0.2848916,0.3093592 0.012153,0 0.1602419,-0.1392117 0.3290858,-0.3093592 z M 4.9098365,2.0490073 c 0.043995,-0.048614 0.070047,-0.088388 0.057893,-0.088388 -0.012153,0 -0.058093,0.039775 -0.1020875,0.088388 -0.043995,0.048614 -0.070047,0.088388 -0.057893,0.088388 0.012153,0 0.058093,-0.039775 0.1020875,-0.088388 z m 6.6070295,0.027508 c 0,-0.00918 -0.0348,-0.04398 -0.07734,-0.07734 -0.0701,-0.054972 -0.07166,-0.053409 -0.01669,0.016686 0.05773,0.073616 0.09403,0.097027 0.09403,0.060654 z M 5.5921027,1.5771166 C 5.646342,1.5158255 5.2438885,1.7567067 5.1250722,1.8566493 5.0553061,1.9153332 5.1262584,1.8827612 5.2827435,1.7842671 5.4392287,1.685773 5.5784404,1.5925552 5.5921027,1.5771166 Z m 5.7479863,0.3668166 c 0,-0.00918 -0.0348,-0.04398 -0.07734,-0.07734 -0.07009,-0.054972 -0.07166,-0.053409 -0.01669,0.016686 0.05773,0.073616 0.09403,0.097027 0.09403,0.060654 z M 11.03073,1.7191059 c 0,-0.011298 -0.04475,-0.042226 -0.09944,-0.068729 -0.09549,-0.046273 -0.09603,-0.045457 -0.01365,0.020542 0.09017,0.072239 0.113087,0.082005 0.113087,0.048187 z m -0.220971,-0.133393 c 0,-0.0268 -0.426651,-0.2445565 -0.473618,-0.2417274 -0.01904,0.00115 0.07477,0.059871 0.208453,0.1304975 0.271295,0.1433248 0.265165,0.1407535 0.265165,0.1112299 z M 6.018004,1.3525792 C 5.998011,1.3325862 5.6390404,1.5111596 5.6390404,1.5410981 c 0,0.011344 0.089057,-0.022643 0.1979042,-0.075525 0.1088473,-0.052882 0.190324,-0.1037295 0.1810594,-0.1129939 z m 0.1955607,-0.054873 c 0.03646,-0.023562 0.046404,-0.042841 0.022097,-0.042841 -0.024307,0 -0.074025,0.019278 -0.1104855,0.042841 -0.03646,0.023562 -0.046404,0.042841 -0.022097,0.042841 0.024307,0 0.074025,-0.019278 0.1104855,-0.042841 z m 3.9332813,-0.044194 c -0.03646,-0.023562 -0.08618,-0.042841 -0.110485,-0.042841 -0.02431,0 -0.01436,0.019278 0.0221,0.042841 0.03646,0.023562 0.08618,0.042841 0.110485,0.042841 0.02431,0 0.01436,-0.019278 -0.0221,-0.042841 z M 6.6555065,1.1360476 c 0.1323655,-0.051895 0.1362572,-0.057015 0.026978,-0.035491 -0.070236,0.013834 -0.1895604,0.053704 -0.2651651,0.088599 -0.1033995,0.047724 -0.1100846,0.056518 -0.026978,0.035491 0.060767,-0.015375 0.1800913,-0.055245 0.2651651,-0.088599 z m 3.037429,-0.041819 c -0.014686,-0.014685 -0.052803,-0.016255 -0.084706,-0.00349 -0.035255,0.014108 -0.024783,0.02458 0.026701,0.026701 0.046588,0.00192 0.07269,-0.00853 0.058005,-0.023211 z M 6.9528966,1.0500348 c -0.014686,-0.014685 -0.052803,-0.016255 -0.084706,-0.00349 -0.035255,0.014108 -0.024783,0.02458 0.026701,0.026701 0.046588,0.00192 0.07269,-0.00853 0.058005,-0.023211 z m 0.1767767,-0.044194 c -0.014686,-0.0146853 -0.052803,-0.0162554 -0.084706,-0.00349 -0.035255,0.014108 -0.024783,0.02458 0.026701,0.026701 0.046588,0.00192 0.07269,-0.00853 0.058005,-0.023211 z m 2.2097088,0 c -0.014686,-0.0146853 -0.052803,-0.0162554 -0.084706,-0.00349 -0.035255,0.014108 -0.024783,0.02458 0.026701,0.026701 0.046588,0.00192 0.07269,-0.00853 0.058005,-0.023211 z M 7.3736618,0.9590781 c -0.030384,-0.01226 -0.080102,-0.01226 -0.1104854,0 -0.030384,0.01226 -0.00552,0.0222909 0.055243,0.0222909 0.060767,0 0.085626,-0.0100309 0.055242,-0.0222909 z m 1.7686081,2.7842e-4 c -0.029921,-0.0121058 -0.089583,-0.0128427 -0.1325826,-0.001637 -0.043,0.0112052 -0.018519,0.0211099 0.054402,0.0220106 0.07292,9.0068e-4 0.1081016,-0.008267 0.078181,-0.0203736 z M 7.7498276,0.91378795 C 7.707574,0.90272646 7.6280245,0.90232513 7.5730509,0.91289611 c -0.054974,0.0105709 -0.020403,0.0196212 0.076824,0.0201118 0.097227,4.9056e-4 0.1422058,-0.008158 0.099953,-0.01922 z m 1.0606602,0 c -0.042254,-0.0110615 -0.1218031,-0.0114628 -0.1767767,-8.9184e-4 -0.054974,0.0105709 -0.020403,0.0196212 0.076825,0.0201118 0.097227,4.9056e-4 0.1422058,-0.008158 0.099952,-0.01922 z"
     id="path30"
     inkscape:connector-curvature="0" />
  <path
     style="fill:#e0e0e0;fill-opacity:1;stroke-width:0.04419418"
     d="M 7.8244199,15.578271 C 7.6896183,15.496067 7.2610931,14.908461 4.7131633,11.312028 3.2845485,9.295521 3.234481,9.2202459 2.9708022,8.6924318 2.584439,7.9190368 2.3997008,7.1066988 2.3997008,6.1811627 2.3997008,4.6081824 2.984086,3.1953455 4.0905852,2.0932015 4.5692259,1.6164447 5.0057549,1.3012598 5.5904202,1.010283 6.4495414,0.58271469 7.1900045,0.41151757 8.1802055,0.41151757 c 1.3860924,0 2.4930165,0.3771831 3.5797285,1.21978893 1.103442,0.8555775 1.853305,2.0957879 2.123019,3.5112931 0.106904,0.561053 0.108324,1.5149123 0.0031,2.0534258 C 13.69135,8.1918488 13.393989,8.8347026 12.612045,9.9501614 10.582192,12.84579 8.6814174,15.474864 8.5552355,15.561377 8.369426,15.688771 8.01891,15.696874 7.8244203,15.578271 Z M 8.6884385,9.117015 C 9.7725698,8.9411959 10.726589,8.079547 11.058243,6.9766579 11.164897,6.6219917 11.166983,5.8065 11.062234,5.41706 10.796004,4.4272669 9.9750552,3.5971597 8.9748557,3.3063939 8.6242151,3.2044599 7.798226,3.202506 7.4123043,3.3026975 6.4280497,3.5582263 5.559895,4.4280613 5.2991597,5.4199326 5.2000949,5.7967874 5.203595,6.6254839 5.3057354,6.9768347 5.5445206,7.7982267 6.110071,8.4661903 6.8985757,8.8581162 7.4638962,9.1391081 8.0391395,9.2223155 8.6884399,9.117015 Z M 12.135584,2.6533323 c 0,-0.00792 -0.05469,-0.062607 -0.121534,-0.121534 l -0.121534,-0.1071405 0.107141,0.121534 c 0.100139,0.1135918 0.135927,0.1418009 0.135927,0.1071405 z M 4.534186,2.3804636 C 4.6166428,2.2953898 4.6741637,2.225784 4.6620103,2.225784 c -0.012153,0 -0.089562,0.069606 -0.1720185,0.1546796 -0.082457,0.085074 -0.1399777,0.1546796 -0.1278243,0.1546796 0.012153,0 0.089562,-0.069606 0.1720185,-0.1546796 z"
     id="path32"
     inkscape:connector-curvature="0" />
  <path
     style="fill:#e0e0e0;fill-opacity:1;stroke-width:0.04419418"
     d="M 7.8219636,15.576777 C 7.6920641,15.497566 6.6040941,14.00099 4.2065376,10.603515 3.2403809,9.2344155 3.0382122,8.910188 2.8257763,8.3891232 2.1017861,6.6133137 2.290745,4.586475 3.3269222,3.013657 4.2048443,1.6810552 5.6115848,0.75256918 7.163933,0.48112797 7.6271525,0.4001301 8.6270749,0.38837079 9.0706448,0.45870462 10.270958,0.64903022 11.265104,1.1355799 12.155134,1.9682995 14.117593,3.8043923 14.551683,6.8368611 13.177461,9.1100831 12.675179,9.9409517 8.7039529,15.475849 8.5370885,15.577603 8.3559021,15.688091 8.0038434,15.687685 7.8219636,15.576777 Z m 1.13164,-6.5221205 C 9.436524,8.9270105 9.8312009,8.6866609 10.25942,8.2594429 c 0.327752,-0.3269852 0.432566,-0.466626 0.581381,-0.774552 0.229357,-0.4745845 0.287925,-0.7339853 0.287925,-1.2752344 0,-0.5652785 -0.06615,-0.8747265 -0.284598,-1.331308 C 10.696186,4.5691293 10.594446,4.4333035 10.262212,4.1014726 9.6217351,3.4617729 9.0981526,3.2436978 8.2005393,3.2427746 7.280021,3.2418278 6.7428045,3.4620038 6.1019255,4.1028827 5.4664567,4.7383514 5.2412928,5.2820835 5.2412928,6.1811627 c 0,0.5681674 0.067596,0.8806132 0.2883544,1.3328548 0.1819075,0.3726519 0.6529048,0.8994907 1.0248874,1.1463987 0.2930897,0.1945419 0.79426,0.3980596 1.1264955,0.4574526 0.2969857,0.053091 0.9565056,0.020331 1.2725735,-0.063212 z"
     id="path34"
     inkscape:connector-curvature="0" />
  <path
     style="fill:#e0e0e0;fill-opacity:1;stroke-width:0.04419418"
     d="M 7.8199465,15.57555 C 7.7292941,15.520274 7.1648638,14.768046 6.2034785,13.42125 4.2288541,10.655016 3.3730328,9.4326109 3.160399,9.0746951 2.2028098,7.462834 2.1298235,5.3122062 2.9752105,3.6179005 3.3877379,2.7911224 4.1849689,1.8745779 4.9098365,1.3937388 5.5936625,0.9401245 6.4015683,0.60860461 7.1416424,0.47792901 c 0.5017838,-0.0886004 1.5835277,-0.086955 2.0990298,0.003193 1.7077748,0.29864513 3.2646788,1.45134049 4.0787428,3.01980569 0.475718,0.9165707 0.644825,1.6271241 0.643137,2.7023322 -0.0012,0.7945786 -0.05413,1.1362499 -0.281917,1.8213084 -0.245078,0.7370727 -0.466142,1.0997305 -1.920462,3.1505367 -2.1513523,3.033724 -3.0979367,4.326176 -3.2253936,4.403903 -0.1798526,0.10968 -0.5320838,0.107976 -0.7148329,-0.0035 z M 8.9283139,9.0487805 C 9.8868723,8.8164924 10.797453,7.905783 11.053309,6.9234839 11.137978,6.5984189 11.137676,5.8234719 11.052743,5.4632416 10.812992,4.4464082 9.9078385,3.5460535 8.882873,3.3048782 8.4528937,3.2037037 7.6260817,3.2377504 7.2300307,3.3729395 6.8170384,3.5139114 6.4675176,3.7410237 6.1037921,4.1047493 5.7431094,4.4654319 5.5162488,4.8129318 5.3685426,5.2309879 5.2802705,5.4808265 5.2668819,5.6046121 5.2657723,6.1811627 c -0.00112,0.5839978 0.010958,0.6971092 0.1014946,0.9501748 0.3066992,0.8572817 1.0511733,1.5817842 1.9290551,1.8773054 0.4544558,0.152983 1.1007333,0.1688779 1.6319919,0.040138 z"
     id="path36"
     inkscape:connector-curvature="0" />
  <path
     style="fill:#e0e0e0;fill-opacity:1;stroke-width:0.04419418"
     d="M 7.8215039,15.576498 C 7.7397261,15.526631 7.3884708,15.08234 6.9568736,14.482857 5.8352105,12.924879 3.7903481,10.034773 3.4426301,9.5160017 2.9170223,8.7318305 2.6703592,8.165692 2.4947943,7.3405381 2.3586144,6.7004938 2.3586144,5.6618317 2.4947943,5.0217873 2.7417015,3.8613251 3.2451518,2.9367893 4.090492,2.0914492 4.9250253,1.2569159 5.8913425,0.72998742 7.0024891,0.50355013 7.5729506,0.38729752 8.6432314,0.37655535 9.2406722,0.481086 c 2.0249448,0.35429242 3.7818538,1.8804971 4.4404428,3.8573557 0.220892,0.6630428 0.284302,1.0678124 0.285213,1.8206239 9.41e-4,0.7774587 -0.05415,1.153483 -0.262794,1.7936061 -0.267848,0.821773 -0.46078,1.1400727 -2.041467,3.3680083 C 9.51092,14.352665 8.6728274,15.494838 8.5395722,15.576093 8.355659,15.688238 8.005075,15.688436 7.8215039,15.576491 Z M 8.8298944,9.0718998 C 9.5316577,8.9275417 10.322891,8.3349133 10.741088,7.6404279 11.031838,7.1575897 11.097445,6.8819834 11.093717,6.1590656 11.090756,5.5844021 11.078788,5.4874936 10.977804,5.2203128 10.808474,4.7723059 10.60082,4.4538426 10.252065,4.1073041 9.8999587,3.7574359 9.5821111,3.5503389 9.1410554,3.3834148 8.875094,3.2827576 8.7767146,3.2703798 8.2243997,3.2680834 7.2735452,3.26413 6.8223717,3.4395096 6.1693705,4.0669112 5.7599039,4.4603256 5.5553877,4.7607844 5.3842742,5.2203128 5.2852933,5.4861275 5.2730398,5.5873402 5.2706226,6.1590656 c -0.00287,0.6784774 0.036862,0.8815532 0.2595189,1.3264758 0.3627161,0.7247956 1.1432119,1.3606477 1.9208601,1.5648805 0.2915888,0.07658 1.0533479,0.088445 1.3788928,0.021478 z"
     id="path38"
     inkscape:connector-curvature="0" />
  <path
     style="fill:#e0e0e0;fill-opacity:1;stroke-width:0.02209709"
     d="M 7.9403512,15.638239 C 7.8707419,15.61683 7.7958029,15.567537 7.7159341,15.490623 7.577847,15.357645 6.8658118,14.370347 4.5171011,11.055169 3.9766109,10.292273 3.4327568,9.5083966 3.287774,9.283296 2.8308196,8.5738276 2.5458347,7.7977755 2.4291363,6.9451103 2.3718509,6.5265508 2.377475,5.7510899 2.4408121,5.3352141 2.5987716,4.2980418 3.0015902,3.3726814 3.6422666,2.5752165 3.9296975,2.2174444 4.3470778,1.8081881 4.6782348,1.5594127 5.9185793,0.62762753 7.3885803,0.24436563 8.9724426,0.43981749 10.207465,0.59222177 11.376233,1.1747171 12.288283,2.092379 c 0.472206,0.4751114 0.801468,0.9352373 1.092794,1.5271195 0.28385,0.5766943 0.444359,1.0736085 0.53488,1.6559112 0.06559,0.4219337 0.07138,1.3681776 0.01076,1.7580889 -0.107853,0.6937083 -0.337021,1.3627436 -0.659726,1.9260143 -0.299081,0.5220353 -1.140442,1.7272471 -3.5609231,5.1008601 -1.0611968,1.479072 -1.0172286,1.420448 -1.1174038,1.489869 -0.1726202,0.119626 -0.4313137,0.154739 -0.6483149,0.088 z m 0.986367,-6.5907269 c 0.9792455,-0.26536 1.9339608,-1.2320022 2.1201098,-2.146596 0.0466,-0.228947 0.06654,-0.7948044 0.03983,-1.1298349 C 11.053748,5.3584353 10.91465,4.9782507 10.648192,4.5726637 10.51605,4.3715252 9.9929283,3.8485041 9.790528,3.715165 9.5725816,3.5715841 9.3130588,3.4448392 9.0708548,3.3636934 8.8026486,3.2738362 8.3586507,3.2409299 7.8861323,3.2758893 7.1042193,3.3337394 6.7411224,3.5086622 6.1198961,4.1267779 5.7122201,4.5324123 5.5203666,4.820772 5.3736282,5.2484333 5.2845327,5.5080975 5.2654223,5.7169674 5.2773046,6.3012221 c 0.00895,0.4402971 0.018025,0.5501243 0.057743,0.6991309 0.063647,0.2387829 0.2795485,0.6654039 0.4535417,0.8961976 0.3767916,0.4997961 0.981795,0.9377577 1.5381137,1.1134395 0.2784306,0.087927 0.382526,0.098157 0.9280777,0.091209 0.4260524,-0.00543 0.5221865,-0.013107 0.6719375,-0.053687 z"
     id="path40"
     inkscape:connector-curvature="0" />
</svg>
