<?xml version="1.0" encoding="UTF-8" standalone="no"?>
<svg
   xmlns:dc="http://purl.org/dc/elements/1.1/"
   xmlns:cc="http://creativecommons.org/ns#"
   xmlns:rdf="http://www.w3.org/1999/02/22-rdf-syntax-ns#"
   xmlns:svg="http://www.w3.org/2000/svg"
   xmlns="http://www.w3.org/2000/svg"
   xmlns:sodipodi="http://sodipodi.sourceforge.net/DTD/sodipodi-0.dtd"
   xmlns:inkscape="http://www.inkscape.org/namespaces/inkscape"
   width="20"
   height="20"
   version="1.1"
   viewBox="0 0 20 20"
   id="svg6"
   sodipodi:docname="UI-Resources-A.svg"
   inkscape:version="0.92.2 2405546, 2018-03-11"
   inkscape:export-filename="/home/fabian/Projects/TrainsAndThings/Source/Textures/UI-Shares-A.svg.png"
   inkscape:export-xdpi="96"
   inkscape:export-ydpi="96">
  <metadata
     id="metadata12">
    <rdf:RDF>
      <cc:Work
         rdf:about="">
        <dc:format>image/svg+xml</dc:format>
        <dc:type
           rdf:resource="http://purl.org/dc/dcmitype/StillImage" />
        <dc:title />
      </cc:Work>
    </rdf:RDF>
  </metadata>
  <defs
     id="defs10" />
  <sodipodi:namedview
     pagecolor="#808080"
     bordercolor="#666666"
     borderopacity="1"
     objecttolerance="10"
     gridtolerance="10"
     guidetolerance="10"
     inkscape:pageopacity="1"
     inkscape:pageshadow="2"
     inkscape:window-width="2504"
     inkscape:window-height="1051"
     id="namedview8"
     showgrid="true"
     inkscape:zoom="31.999998"
     inkscape:cx="9.5611836"
     inkscape:cy="12.321245"
     inkscape:window-x="1336"
     inkscape:window-y="0"
     inkscape:window-maximized="1"
     inkscape:current-layer="layer3"
     inkscape:snap-bbox="true">
    <inkscape:grid
       type="xygrid"
       id="grid820"
       empspacing="1"
       dotted="false" />
  </sodipodi:namedview>
  <g
     inkscape:groupmode="layer"
     id="layer3"
     inkscape:label="Layer 3"
     transform="translate(0,4)"
     style="display:inline">
    <rect
       style="fill:#ffffff;fill-opacity:0.98000002;stroke-width:1.06066012"
       id="rect832"
       width="18"
       height="1"
       x="1"
       y="14" />
    <path
       style="fill:#ffffff;fill-opacity:0.98000002;stroke-width:1.97484183"
       d="M 3,1 V 8 H 2 v 6 H 5 V 1 Z"
       id="rect834"
       inkscape:connector-curvature="0"
       sodipodi:nodetypes="ccccccc" />
    <path
       style="fill:#ffffff;fill-opacity:0.98000002;stroke-width:2.23606801"
       d="M 6 8 L 6 18 L 10 18 L 10 16 L 10 15 L 16 15 L 16 16 L 16 18 L 18 18 L 18 8 L 6 8 z M 8 9 L 9 9 L 9 11 L 8 11 L 8 9 z M 10 9 L 11 9 L 11 11 L 10 11 L 10 9 z M 13 9 L 14 9 L 14 11 L 13 11 L 13 9 z M 15 9 L 16 9 L 16 11 L 15 11 L 15 9 z M 8 12 L 9 12 L 9 14 L 8 14 L 8 12 z M 10 12 L 11 12 L 11 14 L 10 14 L 10 12 z M 13 12 L 14 12 L 14 14 L 13 14 L 13 12 z M 15 12 L 16 12 L 16 14 L 15 14 L 15 12 z M 11 16 L 11 18 L 15 18 L 15 16 L 11 16 z "
       transform="translate(0,-4)"
       id="rect836" />
  </g>
</svg>
