[gd_scene load_steps=7 format=2]

[ext_resource path="res://Textures/FX-Dust-A.png" type="Texture" id=1]

[sub_resource type="SpatialMaterial" id=1]
flags_transparent = true
flags_unshaded = true
vertex_color_use_as_albedo = true
params_specular_mode = 4
params_blend_mode = 1
params_billboard_mode = 3
particles_anim_h_frames = 1
particles_anim_v_frames = 1
particles_anim_loop = false
albedo_texture = ExtResource( 1 )
distance_fade_mode = 1
distance_fade_min_distance = 10.0
distance_fade_max_distance = 80.0

[sub_resource type="Gradient" id=2]
offsets = PoolRealArray( 0, 0.191781, 0.496575, 0.804795, 1 )
colors = PoolColorArray( 0, 0, 0, 1, 0.635294, 0.635294, 0.635294, 1, 0.458824, 0.458824, 0.458824, 1, 0.768627, 0.717647, 0.717647, 1, 0, 0, 0, 1 )

[sub_resource type="GradientTexture" id=3]
gradient = SubResource( 2 )

[sub_resource type="ParticlesMaterial" id=4]
emission_shape = 2
emission_box_extents = Vector3( 400, 300, 500 )
direction = Vector3( 1, 1, 1 )
spread = 180.0
gravity = Vector3( 0, 2, 0 )
initial_velocity = 4.0
initial_velocity_random = 1.0
angular_velocity = 20.0
angular_velocity_random = 1.0
radial_accel = 2.0
radial_accel_random = 1.0
tangential_accel = 3.0
tangential_accel_random = 1.0
damping = 2.0
damping_random = 1.0
angle = 360.0
angle_random = 1.0
scale = 5.0
scale_random = 0.4
color_ramp = SubResource( 3 )
hue_variation = 0.01
hue_variation_random = 1.0

[sub_resource type="QuadMesh" id=5]

[node name="FX-Dust-A" type="Spatial"]

[node name="Particles" type="Particles" parent="."]
transform = Transform( 1, 0, 0, 0, 1, 0, 0, 0, 1, 0, 0, -250 )
material_override = SubResource( 1 )
amount = 1000
lifetime = 4.0
preprocess = 10.0
visibility_aabb = AABB( -100, -100, -100, 200, 200, 200 )
local_coords = false
process_material = SubResource( 4 )
draw_pass_1 = SubResource( 5 )
