[gd_scene load_steps=6 format=2]

[ext_resource path="res://Materials/M-FX-Smoke-A.tres" type="Material" id=1]

[sub_resource type="Curve" id=1]
_data = [ Vector2( 0, 0 ), 0.0, 2.18108, 0, 0, Vector2( 0.99953, 0 ), -5.43977, 0.0, 0, 0 ]

[sub_resource type="CurveTexture" id=2]
curve = SubResource( 1 )

[sub_resource type="ParticlesMaterial" id=3]
emission_shape = 1
emission_sphere_radius = 1.0
direction = Vector3( 0, 1, 0 )
spread = 0.4
gravity = Vector3( 0, 6, 0 )
initial_velocity = 5.0
initial_velocity_random = 1.0
damping = 2.0
damping_random = 0.1
scale_random = 0.2
scale_curve = SubResource( 2 )

[sub_resource type="CubeMesh" id=4]

[node name="Vehicle-TrainEngineSmoke-C" type="Particles"]
material_override = ExtResource( 1 )
lod_min_distance = 10.0
lod_max_distance = 50.0
amount = 4
lifetime = 1.6
visibility_aabb = AABB( -20, -20, -20, 40, 40, 40 )
local_coords = false
process_material = SubResource( 3 )
draw_pass_1 = SubResource( 4 )
